{
  "project_info": {
    "project_number": "581373165901",
    "firebase_url": "https://thesis-197ca.firebaseio.com",
    "project_id": "thesis-197ca",
    "storage_bucket": "thesis-197ca.appspot.com"
  },
  "client": [
    {
      "client_info": {
        "mobilesdk_app_id": "1:581373165901:android:2fd0c5bdfc6970e4",
        "android_client_info": {
          "package_name": "be.kuleuven.simonbernd.thesis"
        }
      },
      "oauth_client": [
        {
          "client_id": "581373165901-9i24u8e5nsmn4ofmsai8v3d0c0a8mt4s.apps.googleusercontent.com",
          "client_type": 1,
          "android_info": {
            "package_name": "be.kuleuven.simonbernd.thesis",
            "certificate_hash": "87974244a2d99574af70a4606b919a054699fe61"
          }
        },
        {
          "client_id": "581373165901-d98hm1g9fbgfe4fjh121mbc4fage6phu.apps.googleusercontent.com",
          "client_type": 3
        }
      ],
      "api_key": [
        {
          "current_key": "AIzaSyCyC5_L-OapNC08NAMCoR8W-dIRXPDHlkM"
        }
      ],
      "services": {
        "analytics_service": {
          "status": 1
        },
        "appinvite_service": {
          "status": 2,
          "other_platform_oauth_client": [
            {
              "client_id": "581373165901-d98hm1g9fbgfe4fjh121mbc4fage6phu.apps.googleusercontent.com",
              "client_type": 3
            }
          ]
        },
        "ads_service": {
          "status": 2
        }
      }
    }
  ],
  "configuration_version": "1"
}